W06-Reflection Essay-Introduction to Positron
…
# Return a useful object
list(
  dataset = df,
  correlation = round(corr, 3),
  plot = p
)

$dataset
# A tibble: 500 × 10
      id   age gender hours_listen_week music_genre  hours_study_week
   <int> <int> <chr>              <dbl> <chr>                   <dbl>
 1     1    29 M                    3.4 Electronic               11.2
 2     2    25 M                    2.3 Classical                 7.5
 3     3    17 F                   11   Rock                     17.2
 4     4    22 F                   20.4 Electronic                6.5
 5     5    29 M                    5.4 Rock                      8.4
 6     6    27 F                    6.1 Electronic               13.6
 7     7    28 F                    9.5 Electronic               12.5
 8     8    20 F                   18.1 Instrumental             13.4
 9     9    21 F                    4.6 HipHop                    9.6
10    10    28 M                   12.8 Rock                      7.6
# ℹ 490 more rows
# ℹ 4 more variables: prefers_music_while_studying <chr>,
#   concentration_score <dbl>, exam_score <dbl>, gpa_est <dbl>
…
